{"properties": [
  {
    "name": "sms.sender.app.url",
    "type": "java.lang.String",
    "description": "A description for 'sms.sender.app.url'"
  },
  {
    "name": "sms.sender.service.name",
    "type": "java.lang.String",
    "description": "A description for 'sms.sender.service.name'"
  },
  {
    "name": "sms.sender.app.key",
    "type": "java.lang.String",
    "description": "A description for 'sms.sender.app.key'"
  },
  {
    "name": "sms.sender.app.secret",
    "type": "java.lang.String",
    "description": "A description for 'sms.sender.app.secret'"
  },
  {
    "name": "sms.sender.consumer.key",
    "type": "java.lang.String",
    "description": "A description for 'sms.sender.consumer.key'"
  }
]}